{
	"info": {
		"_postman_id": "98f573be-c228-4825-939a-48fcacd2adab",
		"name": "Apitechu v1",
		"schema": "https://schema.getpostman.com/json/collection/v2.1.0/collection.json"
	},
	"item": [
		{
			"name": "PRODUCTS",
			"request": {
				"method": "GET",
				"header": [],
				"url": {
					"raw": "http://localhost:8080/apitechu/v1/products",
					"protocol": "http",
					"host": [
						"localhost"
					],
					"port": "8080",
					"path": [
						"apitechu",
						"v1",
						"products"
					]
				}
			},
			"response": []
		},
		{
			"name": "PRODUCT BY ID",
			"request": {
				"method": "GET",
				"header": [],
				"url": {
					"raw": "http://localhost:8080/apitechu/v1/products/2",
					"protocol": "http",
					"host": [
						"localhost"
					],
					"port": "8080",
					"path": [
						"apitechu",
						"v1",
						"products",
						"2"
					]
				}
			},
			"response": []
		},
		{
			"name": "CREATE PRODUCT",
			"request": {
				"method": "POST",
				"header": [],
				"body": {
					"mode": "raw",
					"raw": "{\r\n    \"id\" : \"2\",\r\n    \"desc\" : \"Producto 2\",\r\n    \"price\" : 20\r\n}",
					"options": {
						"raw": {
							"language": "json"
						}
					}
				},
				"url": {
					"raw": "http://localhost:8080/apitechu/v1/products",
					"protocol": "http",
					"host": [
						"localhost"
					],
					"port": "8080",
					"path": [
						"apitechu",
						"v1",
						"products"
					]
				}
			},
			"response": []
		},
		{
			"name": "UPDATE PRODUCT",
			"request": {
				"method": "PUT",
				"header": [],
				"body": {
					"mode": "raw",
					"raw": "{\r\n    \"id\" : \"2\",\r\n    \"desc\" : \"Producto 2 updated\",\r\n    \"price\" : 2224\r\n}",
					"options": {
						"raw": {
							"language": "json"
						}
					}
				},
				"url": {
					"raw": "http://localhost:8080/apitechu/v1/products/2",
					"protocol": "http",
					"host": [
						"localhost"
					],
					"port": "8080",
					"path": [
						"apitechu",
						"v1",
						"products",
						"2"
					]
				}
			},
			"response": []
		},
		{
			"name": "PATCH PRODUCTS",
			"request": {
				"method": "PATCH",
				"header": [],
				"body": {
					"mode": "raw",
					"raw": "{\r\n    \"desc\" : \"Producto 2 updated\",\r\n    \"price\" : 2224545\r\n}",
					"options": {
						"raw": {
							"language": "json"
						}
					}
				},
				"url": {
					"raw": "http://localhost:8080/apitechu/v1/products/2",
					"protocol": "http",
					"host": [
						"localhost"
					],
					"port": "8080",
					"path": [
						"apitechu",
						"v1",
						"products",
						"2"
					]
				}
			},
			"response": []
		},
		{
			"name": "DELETE PRODUCT",
			"request": {
				"method": "DELETE",
				"header": [],
				"url": {
					"raw": "http://localhost:8080/apitechu/v1/products/2",
					"protocol": "http",
					"host": [
						"localhost"
					],
					"port": "8080",
					"path": [
						"apitechu",
						"v1",
						"products",
						"2"
					]
				}
			},
			"response": []
		}
	]
}